{

	"angular": [
		{
			"src": {
				"path": "angular",
				"files": [
					"angular.min.js",
					"angular.min.js.map"
				]
			},
			"dest": "js"
		}
	],

	"angular-animate": [
		{
			"src": {
				"path": "angular-animate",
				"files": [
					"angular-animate.min.js",
					"angular-animate.min.js.map"
				]
			},
			"dest": "js"
		}
	],

	"angular-aria": [
		{
			"src": {
				"path": "angular-aria",
				"files": [
					"angular-aria.min.js",
					"angular-aria.min.js.map"
				]
			},
			"dest": "js"
		}
	],

	"angular-material": [
		{
			"src": {
				"path": "angular-material",
				"files": [
					"angular-material.min.css"
				]
			},
			"dest": "css"
		}
	],

	"angular-resource": [
		{
			"src": {
				"path": "angular-resource",
				"files": [
					"angular-resource.min.js",
					"angular-resource.min.js.map"
				]
			},
			"dest": "js"
		}
	],

	"angular-route": [
		{
			"src": {
				"path": "angular-route",
				"files": [
					"angular-route.min.js",
					"angular-route.min.js.map"
				]
			},
			"dest": "js"
		}
	],

	"animate-css": [
		{
			"src": {
				"path": "animate.css",
				"files": [
					"animate.min.css"
				]
			},
			"dest": "css"
		}
	],

	"angularfire": [
		{
			"src": {
				"path": "angularfire/dist",
				"files": [
					"angularfire.min.js"
				]
			},
			"dest": "js"
		}
	],

	"bootflat": [
		{
			"src": {
				"path": "Bootflat/bootflat/css",
				"files": [
					"bootflat.min.css",
					"bootflat.css.map"
				]
			},
			"dest": "css"
		},
		{
			"src": {
				"path": "Bootflat/bootflat/js",
				"files": [
					"icheck.min.js",
					"jquery.fs.selecter.min.js",
					"jquery.fs.stepper.min.js"
				]
			},
			"dest": "js"
		}
	],

	"bootstrap": [
		{
			"src": {
				"path": "bootstrap/dist/css",
				"files": [
					"bootstrap.min.css",
					"bootstrap.css.map"
				]
			},
			"dest": "css"
		},
		{
			"src": {
				"path": "bootstrap/dist/fonts",
				"files": [
					"glyphicons-halflings-regular.eot",
					"glyphicons-halflings-regular.svg",
					"glyphicons-halflings-regular.ttf",
					"glyphicons-halflings-regular.woff"
				]
			},
			"dest": "fonts"
		},
		{
			"src": {
				"path": "bootstrap/dist/js",
				"files": [
					"bootstrap.min.js"
				]
			},
			"dest": "js"
		}
	],

	"firebase": [
		{
			"src": {
				"path": "firebase",
				"files": [
					"firebase.js"
				]
			},
			"dest": "js"
		},
		{
			"src": {
				"path": "angularfire/dist/",
				"files": [
					"angularfire.min.js"
				]
			},
			"dest": "js"
		}
	],

	"font-awesome": [
		{
			"src": {
				"path": "font-awesome/css",
				"files": [
					"font-awesome.min.css"
				]
			},
			"dest": "css"
		},
		{
			"src": {
				"path": "font-awesome/fonts",
				"files": [
					"FontAwesome.otf",
					"fontawesome-webfont.eot",
					"fontawesome-webfont.svg",
					"fontawesome-webfont.ttf",
					"fontawesome-webfont.woff"
				]
			},
			"dest": "fonts"
		}
	],

	"handlebars": [
		{
			"src": {
				"path": "handlebars",
				"files": [
					"handlebars.min.js"
				]
			},
			"dest": "js"
		}
	],

	"jquery": [
		{
			"src": {
				"path": "jquery/dist",
				"files": [
					"jquery.min.js",
					"jquery.min.map"
				]
			},
			"dest": "js"
		}
	],

	"jquery-cookie": [
		{
			"src": {
				"path": "jquery-cookie",
				"files": [
					"jquery.cookie.js"
				]
			},
			"dest": "js"
		}
	],

	"jquery-ui": [
		{
			"src": {
				"path": "jquery.ui/ui",
				"files": [
					"core.js"
				]
			},
			"dest": "js"
		}
	],

	"lodash": [
		{
			"src": {
				"path": "lodash",
				"files": [
					"lodash.min.js"
				]
			},
			"dest": "js"
		}
	],

	"mustache": [
		{
			"src": {
				"path": "mustache",
				"files": [
					"mustache.min.js"
				]
			},
			"dest": "js"
		}
	],

	"polymer": [
		{
			"src": {
				"path": "polymer",
				"files": [
					"layout.html",
					"polymer.html",
					"polymer.js"
				]
			},
			"dest": "polymer"
		}
	],

	"polymer-core": [
		{
			"src": {
				"path": "core-a11y-keys",
				"files": [
					"core-a11y-keys.html"
				]
			},
			"dest": "polymer"
		},
		{
			"src": {
				"path": "core-collapse",
				"files": [
					"core-collapse.html",
					"core-collapse.css"
				]
			},
			"dest": "polymer"
		},
		{
			"src": {
				"path": "core-component-page",
				"files": [
					"core-component-page.html"
				]
			},
			"dest": "polymer"
		},
		{
			"src": {
				"path": "core-drawer-panel",
				"files": [
					"core-drawer-panel.html",
					"core-drawer-panel.css"
				]
			},
			"dest": "polymer"
		},
		{
			"src": {
				"path": "core-header-panel",
				"files": [
					"core-header-panel.html",
					"core-header-panel.css"
				]
			},
			"dest": "polymer"
		},
		{
			"src": {
				"path": "core-icon",
				"files": [
					"core-icon.html",
					"core-icon.css"
				]
			},
			"dest": "polymer"
		},
		{
			"src": {
				"path": "core-icon-button",
				"files": [
					"core-icon-button.html",
					"core-icon-button.css"
				]
			},
			"dest": "polymer"
		},
		{
			"src": {
				"path": "core-icons",
				"files": [
					"av-icons.html",
					"communication-icons.html",
					"core-icons.html",
					"device-icons.html",
					"editor-icons.html",
					"hardware-icons.html",
					"image-icons.html",
					"maps-icons.html",
					"notification-icons.html",
					"social-icons.html"
				]
			},
			"dest": "polymer"
		},
		{
			"src": {
				"path": "core-iconset",
				"files": [
					"core-iconset.html"
				]
			},
			"dest": "polymer"
		},
		{
			"src": {
				"path": "core-iconset-svg",
				"files": [
					"core-iconset-svg.html"
				]
			},
			"dest": "polymer"
		},
		{
			"src": {
				"path": "core-input",
				"files": [
					"core-input.html",
					"core-input.css"
				]
			},
			"dest": "polymer"
		},
		{
			"src": {
				"path": "core-item",
				"files": [
					"core-item.html",
					"core-item.css"
				]
			},
			"dest": "polymer"
		},
		{
			"src": {
				"path": "core-label",
				"files": [
					"core-label.html"
				]
			},
			"dest": "polymer"
		},
		{
			"src": {
				"path": "core-media-query",
				"files": [
					"core-media-query.html"
				]
			},
			"dest": "polymer"
		},
		{
			"src": {
				"path": "core-menu",
				"files": [
					"core-menu.html",
					"core-menu.css",
					"core-submenu.html",
					"core-submenu.css"
				]
			},
			"dest": "polymer"
		},
		{
			"src": {
				"path": "core-meta",
				"files": [
					"core-meta.html"
				]
			},
			"dest": "polymer"
		},
		{
			"src": {
				"path": "core-scaffold",
				"files": [
					"core-scaffold.html"
				]
			},
			"dest": "polymer"
		},
		{
			"src": {
				"path": "core-selection",
				"files": [
					"core-selection.html"
				]
			},
			"dest": "polymer"
		},
		{
			"src": {
				"path": "core-selector",
				"files": [
					"core-selector.html"
				]
			},
			"dest": "polymer"
		},
		{
			"src": {
				"path": "core-style",
				"files": [
					"core-style.html"
				]
			},
			"dest": "polymer"
		},
		{
			"src": {
				"path": "core-toolbar",
				"files": [
					"core-toolbar.html",
					"core-toolbar.css"
				]
			},
			"dest": "polymer"
		}
	],

	"polymer-paper": [
		{
			"src": {
				"path": "core-focusable",
				"files": [
					"core-focusable.html",
					"core-focusable.js",
					"polymer-mixin.js"
				]
			},
			"dest": "polymer"
		},
		{
			"src": {
				"path": "core-overlay",
				"files": [
					"core-overlay.html",
					"core-key-helper.html",
					"core-overlay-layer.html"
				]
			},
			"dest": "polymer"
		},
		{
			"src": {
				"path": "core-range",
				"files": [
					"core-range.html"
				]
			},
			"dest": "polymer"
		},
		{
			"src": {
				"path": "core-resizable",
				"files": [
					"core-resizable.html"
				]
			},
			"dest": "polymer"
		},
		{
			"src": {
				"path": "core-transition",
				"files": [
					"core-transition.html",
					"core-transition-css.html",
					"core-transition-overlay.css"
				]
			},
			"dest": "polymer"
		},
		{
			"src": {
				"path": "font-roboto",
				"files": [
					"roboto.html"
				]
			},
			"dest": "polymer"
		},
		{
			"src": {
				"path": "paper-button",
				"files": [
					"paper-button.html"
				]
			},
			"dest": "polymer"
		},
		{
			"src": {
				"path": "paper-checkbox",
				"files": [
					"paper-checkbox.html"
				]
			},
			"dest": "polymer"
		},
		{
			"src": {
				"path": "paper-dialog",
				"files": [
					"paper-dialog.html"
				]
			},
			"dest": "polymer"
		},
		{
			"src": {
				"path": "paper-icon-button",
				"files": [
					"paper-icon-button.html"
				]
			},
			"dest": "polymer"
		},
		{
			"src": {
				"path": "paper-input",
				"files": [
					"paper-input.html"
				]
			},
			"dest": "polymer"
		},
		{
			"src": {
				"path": "paper-progress",
				"files": [
					"paper-progress.html"
				]
			},
			"dest": "polymer"
		},
		{
			"src": {
				"path": "paper-radio-button",
				"files": [
					"paper-radio-button.html"
				]
			},
			"dest": "polymer"
		},
		{
			"src": {
				"path": "paper-radio-group",
				"files": [
					"paper-radio-group.html"
				]
			},
			"dest": "polymer"
		},
		{
			"src": {
				"path": "paper-ripple",
				"files": [
					"paper-ripple.html"
				]
			},
			"dest": "polymer"
		},
		{
			"src": {
				"path": "paper-shadow",
				"files": [
					"paper-shadow.html"
				]
			},
			"dest": "polymer"
		},
		{
			"src": {
				"path": "paper-slider",
				"files": [
					"paper-slider.html"
				]
			},
			"dest": "polymer"
		},
		{
			"src": {
				"path": "paper-spinner",
				"files": [
					"paper-spinner.html"
				]
			},
			"dest": "polymer"
		},
		{
			"src": {
				"path": "paper-toggle-button",
				"files": [
					"paper-toggle-button.html"
				]
			},
			"dest": "polymer"
		}
	],

	"ractive": [
		{
			"src": {
				"path": "ractive",
				"files": [
					"require.js"
				]
			},
			"dest": "js"
		}
	],

	"react": [
		{
			"src": {
				"path": "react",
				"files": [
					"react.min.js",
					"JSXTransformer.js"
				]
			},
			"dest": "js"
		}
	],

	"requirejs": [
		{
			"src": {
				"path": "requirejs",
				"files": [
					"ractive.min.js"
				]
			},
			"dest": "js"
		}
	],

	"requirejs-domready": [
		{
			"src": {
				"path": "requirejs-domready",
				"files": [
					"domReady.js"
				]
			},
			"dest": "js"
		}
	],

	"restangular": [
		{
			"src": {
				"path": "restangular/dist",
				"files": [
					"restangular.min.js"
				]
			},
			"dest": "js"
		}
	],

	"socket.io": [
		{
			"src": {
				"path": "socket.io-client",
				"files": [
					"socket.io.js"
				]
			},
			"dest": "js"
		}
	],

	"typeahead.js": [
		{
			"src": {
				"path": "typeahead.js/dist",
				"files": [
					"typeahead.bundle.min.js"
				]
			},
			"dest": "js"
		}
	],

	"underscore": [
		{
			"src": {
				"path": "underscore",
				"files": [
					"underscore-min.js",
					"underscore-min.map"
				]
			},
			"dest": "js"
		}
	],

	"webcomponents": [
		{
			"src": {
				"path": "webcomponentsjs",
				"files": [
					"CustomElements.min.js",
					"HTMLImports.min.js",
					"ShadowDOM.min.js",
					"webcomponents.min.js"
				]
			},
			"dest": "polymer"
		}
	]
}